[{
    "width": 256,
    "height": 256,
    "max_layer": 256,
    "output": "sine_sphere.png",
    "height_map": {
        "type": "sine",
        "params": {
            "period": 45,
            "orientation": 0.8,
            "translation_x": 30
        }
    },
    "palette": ["05804b", "28c864", "46c87a", "83c8a5", "bafccd"],
    "layers": {
        "type": "sphere",
        "params": {
            "center": [64, 64, 0],
            "layer_thickness": 2.56
        }
    }
}]
